{
    "id": "488d874f-927a-454b-aedc-2288809f6009",
    "device": {
        "os": "android",
        "ifa": "4af44cdf-5a7b-4020-832d-005663236820",
        "make": "Samsung",
        "model": "sm-g973f",
        "lang": "FR",
        "w": 320,
        "h": 250
    },
    "app": {
        "name": "Scrabble"
    },
    "bid-floor": "1.2"
}
